C:\Users\aporje\git\database-access\Database Access\src\com\mcfadyen\hris\databaseconnection\ControllerServlet.java
C:\Users\aporje\git\database-access\Database Access\src\com\mcfadyen\hris\databaseconnection\SqlDataSource.java
C:\Users\aporje\git\database-access\Database Access\src\com\mcfadyen\hris\databaseconnection\DatabaseAccess.java
C:\Users\aporje\git\database-access\Database Access\src\com\mcfadyen\hris\databaseconnection\MysqlDataSource.java
C:\Users\aporje\git\database-access\Database Access\src\com\mcfadyen\hris\databaseconnection\JavaDBDataSource.java
C:\Users\aporje\git\database-access\Database Access\src\com\mcfadyen\hris\databaseconnection\DataSourceInstance.java
C:\Users\aporje\git\database-access\Database Access\src\com\mcfadyen\hris\databaseconnection\DatabaseTest.java
C:\Users\aporje\git\database-access\Database Access\src\com\mcfadyen\hris\databaseconnection\DatabaseDemo.java
C:\Users\aporje\git\database-access\Database Access\src\com\mcfadyen\hris\databaseconnection\ConnectionPool.java
C:\Users\aporje\git\database-access\Database Access\src\com\mcfadyen\hris\databaseconnection\OracleDataSource.java
C:\Users\aporje\git\database-access\Database Access\src\com\mcfadyen\hris\databaseconnection\DBDetailsBean.java
C:\Users\aporje\git\database-access\Database Access\src\com\mcfadyen\hris\databaseconnection\SQLiteDataSource.java
C:\Users\aporje\git\database-access\Database Access\src\com\mcfadyen\hris\databaseconnection\PostgreSQLDataSource.java
